…
TMLE results summary:
# A tibble: 30 × 4
   comparison    outcome                      effect_measure  n_rows
   <chr>         <chr>                        <chr>            <int>
 1 GLP1 vs SGLT2 ADRD                         Odds Ratio           1
 2 GLP1 vs SGLT2 ADRD                         Risk Difference      1
 3 GLP1 vs SGLT2 Early-onset Epilepsy/Seizure Odds Ratio           1
 4 GLP1 vs SGLT2 Early-onset Epilepsy/Seizure Risk Difference      1
 5 GLP1 vs SGLT2 Epilepsy/Seizure             Odds Ratio           1
 6 GLP1 vs SGLT2 Epilepsy/Seizure             Risk Difference      1
 7 GLP1 vs SGLT2 Late-onset Epilepsy/Seizure  Odds Ratio           1
 8 GLP1 vs SGLT2 Late-onset Epilepsy/Seizure  Risk Difference      1
 9 GLP1 vs SGLT2 stroke                       Odds Ratio           1
10 GLP1 vs SGLT2 stroke                       Risk Difference      1
# ℹ 20 more rows
…
